top_test.vcd
$date
	Thu May  4 15:57:40 2023
$end
$version
	Icarus Verilog
$end
$timescale
	1ps
$end
$scope module top_test $end
$scope module u_top_1 $end
$var wire 1 ! ACKD_n $end
$var wire 1 " ACKI_n $end
$var wire 32 # Alu_A [31:0] $end
$var wire 32 $ DAD [31:0] $end
$var wire 32 % DDT [31:0] $end
$var wire 1 & IACK_n $end
$var wire 32 ' IAD [31:0] $end
$var wire 32 ( IDT [31:0] $end
$var wire 1 ) MREQ $end
$var wire 3 * OINT_n [2:0] $end
$var wire 32 + Reg_temp [31:0] $end
$var wire 1 , WRITE $end
$var wire 1 - clk $end
$var wire 32 . inst [31:0] $end
$var wire 32 / memAddr [31:0] $end
$var wire 32 0 memRdData [31:0] $end
$var wire 32 1 memWrData [31:0] $end
$var wire 1 2 rst $end
$var wire 32 3 rs2_data [31:0] $end
$var wire 5 4 rs2 [4:0] $end
$var wire 32 5 rs1_data [31:0] $end
$var wire 5 6 rs1 [4:0] $end
$var wire 32 7 regWrData [31:0] $end
$var wire 5 8 rd [4:0] $end
$var wire 8 9 opcode [7:0] $end
$var wire 3 : func [2:0] $end
$var wire 1 ; ZERO $end
$var wire 1 < SLTU $end
$var wire 1 = SLT $end
$var wire 2 > SIZE [1:0] $end
$var wire 1 ? RegWrite $end
$var wire 1 @ PcSrc $end
$var wire 1 A MemWrite $end
$var wire 1 B MemRead $end
$var wire 32 C Imm [31:0] $end
$var wire 32 D Alu_Out [31:0] $end
$var wire 32 E Alu_B [31:0] $end
$var wire 1 F AluSrc $end
$var wire 3 G AluCtrl [2:0] $end
$var reg 32 H PC [31:0] $end
$var reg 32 I PC_IN [31:0] $end
$var reg 1 J branch_check $end
$scope module u_alu $end
$var wire 32 K A [31:0] $end
$var wire 32 L B [31:0] $end
$var wire 1 ; zero $end
$var wire 1 < sltu $end
$var wire 1 = slt $end
$var wire 32 M Out [31:0] $end
$var wire 3 N Ctrl [2:0] $end
$upscope $end
$scope module u_decoder $end
$var wire 1 F AluSrc $end
$var wire 1 ? RegWrite $end
$var wire 32 O inst [31:0] $end
$var wire 5 P rs2 [4:0] $end
$var wire 5 Q rs1 [4:0] $end
$var wire 5 R rd [4:0] $end
$var wire 7 S opCode [6:0] $end
$var wire 1 A MemWrite $end
$var wire 1 B MemRead $end
$var wire 32 T Imm [31:0] $end
$var wire 3 U AluCtrl [2:0] $end
$scope function Immediate $end
$var reg 32 V inst [31:0] $end
$upscope $end
$scope function alu_control $end
$var reg 32 W inst [31:0] $end
$upscope $end
$upscope $end
$scope module u_regfile $end
$var wire 1 X clk $end
$var wire 1 Y clk_inv $end
$var wire 32 Z data_in [31:0] $end
$var wire 5 [ rd1_addr [4:0] $end
$var wire 5 \ rd2_addr [4:0] $end
$var wire 1 2 reset $end
$var wire 5 ] wr_addr [4:0] $end
$var wire 1 ^ wr_n $end
$var wire 32 _ ram_data2_out [31:0] $end
$var wire 32 ` ram_data1_out [31:0] $end
$var wire 32 a data2_out [31:0] $end
$var wire 32 b data1_out [31:0] $end
$scope module u_DW_ram_2r_w_s_dff $end
$var wire 1 c a_rst_n $end
$var wire 1 Y clk $end
$var wire 1 d cs_n $end
$var wire 32 e data_in [31:0] $end
$var wire 5 f rd1_addr [4:0] $end
$var wire 5 g rd2_addr [4:0] $end
$var wire 1 2 rst_n $end
$var wire 5 h wr_addr [4:0] $end
$var wire 1 ^ wr_n $end
$var wire 32 i sp [31:0] $end
$var wire 32 j ra [31:0] $end
$var wire 1024 k mem_mux2 [1023:0] $end
$var wire 1024 l mem_mux1 [1023:0] $end
$var wire 32 m data_rd2_out [31:0] $end
$var wire 32 n data_rd1_out [31:0] $end
$var reg 1024 o mem [1023:0] $end
$var reg 1024 p next_mem [1023:0] $end
$scope begin clk_monitor $end
$upscope $end
$scope begin parameter_check $end
$var integer 32 q param_err_flg [31:0] $end
$upscope $end
$scope begin registers $end
$var integer 32 r i [31:0] $end
$var integer 32 s j [31:0] $end
$upscope $end
$upscope $end
$upscope $end
$upscope $end
$upscope $end
$enddefinitions $end
#0
$dumpvars
bx s
bx r
b0 q
bx p
bx o
bx n
bx m
bx l
bx k
bx j
bx i
bx h
bx g
bx f
bx e
0d
1c
bx b
bx a
bx `
bx _
x^
bx ]
bx \
bx [
bx Z
1Y
0X
bx W
bx V
bx U
bx T
bx S
bx R
bx Q
bx P
bx O
bx N
bx M
bx L
bx K
xJ
bx I
bx H
bx G
xF
bx E
bx D
bx C
xB
xA
0@
x?
bx >
x=
x<
x;
bx :
b0xxxxxxx 9
bx 8
bx 7
bx 6
bx 5
bx 4
bx 3
12
bx 1
bx 0
bx /
bx .
1-
x,
bz +
b111 *
x)
bx (
bx '
1&
bx %
bx $
bx #
1"
1!
$end
#1000
b0 j
b0 i
b0 o
b10000000000000000 '
b10000000000000000 H
0c
02
#5000
0^
1?
b0 #
b0 K
b0 5
b0 b
b1000000000110000000000000000 7
b1000000000110000000000000000 Z
b1000000000110000000000000000 e
b10 >
0F
b0 `
b0 n
b0 E
b0 L
b0 _
b0 m
0)
b0 0
b0 %
b0 1
b0 3
b0 a
0Y
b110111 9
b0 :
0B
0,
0A
b110111 S
b10 8
b10 R
b10 ]
b10 h
b0 l
b110 6
b110 Q
b110 [
b110 f
b0 k
b0 4
b0 P
b0 \
b0 g
b1000000000110000000100110111 W
b1000000000110000000000000000 C
b1000000000110000000000000000 T
b1000000000110000000100110111 V
1X
0"
b1000000000110000000100110111 .
b1000000000110000000100110111 O
b1000000000110000000100110111 (
0-
#10000
b1011111 s
b100000 r
b10000000001100000000000000000000000000000000000000000000000000000000000000000000000000000000 p
1Y
0X
1-
#11000
1c
12
#15000
0Y
1X
b0 %
0-
#20000
b1000000000110000000000000000 i
b10000000001100000000000000000000000000000000000000000000000000000000000000000000000000000000 k
b10000000001100000000000000000000000000000000000000000000000000000000000000000000000000000000 o
b10000000000000100 '
b10000000000000100 H
b1011111 s
b100000 r
b10000000001100000000000000000000000000000000000000000000000000000000000000000000000000000000 p
1Y
0X
1-
#25000
b10000000000010100 I
1@
b10000000000001000 7
b10000000000001000 Z
b10000000000001000 e
0Y
b1101111 9
b1101111 S
b1 8
b1 R
b1 ]
b1 h
b10000000001100000000000000000000000000000000000000000000000000000000000000000000000000000000 l
b0 6
b0 Q
b0 [
b0 f
b0 k
b10000 4
b10000 P
b10000 \
b10000 g
b1000000000000000011101111 W
b10000 C
b10000 T
b1000000000000000011101111 V
1X
b1000000000000000011101111 .
b1000000000000000011101111 O
b1000000000000000011101111 (
b0 %
0-
#30000
b10000000000001000 j
b10000000000011000 7
b10000000000011000 Z
b10000000000011000 e
b10000000001100000000000000000000000000000001000000000000100000000000000000000000000000000000 l
b10000000001100000000000000000000000000000001000000000000100000000000000000000000000000000000 o
b10000000000010100 '
b10000000000010100 H
b10000000001100000000000000000000000000000001000000000000100000000000000000000000000000000000 p
b111111 s
b100000 r
1Y
0X
1-
#35000
b1000000000110000000000000000 #
b1000000000110000000000000000 K
b1000000000110000000000000000 5
b1000000000110000000000000000 b
b1000000000101111111111110000 7
b1000000000101111111111110000 Z
b1000000000101111111111110000 e
0@
b1000000000110000000000000000 `
b1000000000110000000000000000 n
b11111111111111111111111111110000 E
b11111111111111111111111111110000 L
1F
b1000000000101111111111110000 $
b1000000000101111111111110000 /
b1000000000101111111111110000 D
b1000000000101111111111110000 M
0Y
b10011 9
b10011 S
b10 8
b10 R
b10 ]
b10 h
b1000000000110000000000000000 l
b10 6
b10 Q
b10 [
b10 f
b0 G
b0 N
b0 U
b11111111000000010000000100010011 W
b11111111111111111111111111110000 C
b11111111111111111111111111110000 T
b11111111000000010000000100010011 V
1X
b11111111000000010000000100010011 .
b11111111000000010000000100010011 O
b11111111000000010000000100010011 (
b0 %
0-
#40000
b1000000000101111111111100000 7
b1000000000101111111111100000 Z
b1000000000101111111111100000 e
b1000000000101111111111100000 $
b1000000000101111111111100000 /
b1000000000101111111111100000 D
b1000000000101111111111100000 M
b1000000000101111111111110000 #
b1000000000101111111111110000 K
b1000000000101111111111110000 5
b1000000000101111111111110000 b
b1000000000101111111111110000 `
b1000000000101111111111110000 n
b1000000000101111111111110000 i
b1000000000101111111111110000 l
b10000000001011111111111100000000000000000001000000000000100000000000000000000000000000000000 o
b10000000000011000 '
b10000000000011000 H
b10000000001011111111111100000000000000000001000000000000100000000000000000000000000000000000 p
b1011111 s
b100000 r
1Y
0X
1-
#45000
b0x 7
b0x Z
b0x e
b10000000000001000 0
b10000000000001000 1
b10000000000001000 3
b10000000000001000 a
1^
b10000000000001000 _
b10000000000001000 m
b0 >
0?
b1000000000101111111111111100 $
b1000000000101111111111111100 /
b1000000000101111111111111100 D
b1000000000101111111111111100 M
1)
1F
b1100 E
b1100 L
0Y
b100011 9
b10 :
1,
1A
b100011 S
b1100 8
b1100 R
b1100 ]
b1100 h
b100000000010111111111111000000000000000000010000000000001000 k
b1 4
b1 P
b1 \
b1 g
b100010010011000100011 W
b1100 C
b1100 T
b100010010011000100011 V
1X
b100010010011000100011 .
b100010010011000100011 O
b100010010011000100011 (
b10000000000001000 %
0-
#50000
b10000000000011100 '
b10000000000011100 H
1Y
0X
0!
1-
#55000
b0 0
b0 1
b0 3
b0 a
b0 _
b0 m
b1000000000101111111111111000 $
b1000000000101111111111111000 /
b1000000000101111111111111000 D
b1000000000101111111111111000 M
b1000 E
b1000 L
0Y
b1000 8
b1000 R
b1000 ]
b1000 h
b0 k
b1000 4
b1000 P
b1000 \
b1000 g
b100000010010010000100011 W
b1000 C
b1000 T
b100000010010010000100011 V
1X
b100000010010010000100011 .
b100000010010010000100011 O
b100000010010010000100011 (
b0 %
0-
#60000
b10000000000100000 '
b10000000000100000 H
1Y
0X
1-
#65000
b1000000000110000000000000000 7
b1000000000110000000000000000 Z
b1000000000110000000000000000 e
0^
b10 >
1?
b1000000000110000000000000000 $
b1000000000110000000000000000 /
b1000000000110000000000000000 D
b1000000000110000000000000000 M
0)
b10000 E
b10000 L
0Y
b10011 9
b0 :
0,
0A
b10011 S
b10000 4
b10000 P
b10000 \
b10000 g
b1000000010000010000010011 W
b10000 C
b10000 T
b1000000010000010000010011 V
1X
b1000000010000010000010011 .
b1000000010000010000010011 O
b1000000010000010000010011 (
b0 %
0-
#70000
b1000000000110000000000000000000000000000000000000000000000000000000000000000000000000000000000000000000000000000000000000000000000000000000000000000000000000000000000000000000000000000000000001000000000101111111111110000 l
b10000000001100000000000000000000000000000000000000000000000000000000000000000000000000000000000000000000000000000000000000000000000000000000000000000000000000000000000000000000000000000000000010000000001011111111111100000000000000000001000000000000100000000000000000000000000000000000 o
b10000000000100100 '
b10000000000100100 H
b10000000001100000000000000000000000000000000000000000000000000000000000000000000000000000000000000000000000000000000000000000000000000000000000000000000000000000000000000000000000000000000000010000000001011111111111100000000000000000001000000000000100000000000000000000000000000000000 p
b100011111 s
b100000 r
1Y
0X
1-
#75000
b1000000000010000000000000000 7
b1000000000010000000000000000 Z
b1000000000010000000000000000 e
0^
1?
0F
bx $
bx /
bx D
bx M
b0 E
b0 L
0Y
b110111 9
b110111 S
b1111 8
b1111 R
b1111 ]
b1111 h
b10000000001100000000000000000000000000000000000000000000000000000000000000000000000000000000000000000000000000000000000000000000000000000000000000000000000000000000000000000000000000000000000010000000001011111111111100000000000000000001000000000000100000000000000000000000000000000000 k
b0 4
b0 P
b0 \
b0 g
bx G
bx N
bx U
b1000000000010000011110110111 W
b1000000000010000000000000000 C
b1000000000010000000000000000 T
b1000000000010000011110110111 V
1X
b1000000000010000011110110111 .
b1000000000010000011110110111 O
b1000000000010000011110110111 (
b0 %
0-
#80000
b100000000001000000000000000000000000000000000000000000000000000000000000000000000000000000000000000000000000000000000000000000000000000000000000000000000000000000000000000000000000000000000000000000000000000000000000000000001000000000110000000000000000000000000000000000000000000000000000000000000000000000000000000000000000000000000000000000000000000000000000000000000000000000000000000000000000000000000000000000001000000000101111111111110000 l
b1000000000010000000000000000000000000000000000000000000000000000000000000000000000000000000000000000000000000000000000000000000000000000000000000000000000000000000000000000000000000000000000000000000000000000000000000000000010000000001100000000000000000000000000000000000000000000000000000000000000000000000000000000000000000000000000000000000000000000000000000000000000000000000000000000000000000000000000000000000010000000001011111111111100000000000000000001000000000000100000000000000000000000000000000000 k
b1000000000010000000000000000000000000000000000000000000000000000000000000000000000000000000000000000000000000000000000000000000000000000000000000000000000000000000000000000000000000000000000000000000000000000000000000000000010000000001100000000000000000000000000000000000000000000000000000000000000000000000000000000000000000000000000000000000000000000000000000000000000000000000000000000000000000000000000000000000010000000001011111111111100000000000000000001000000000000100000000000000000000000000000000000 o
b10000000000101000 '
b10000000000101000 H
b1000000000010000000000000000000000000000000000000000000000000000000000000000000000000000000000000000000000000000000000000000000000000000000000000000000000000000000000000000000000000000000000000000000000000000000000000000000010000000001100000000000000000000000000000000000000000000000000000000000000000000000000000000000000000000000000000000000000000000000000000000000000000000000000000000000000000000000000000000000010000000001011111111111100000000000000000001000000000000100000000000000000000000000000000000 p
b111111111 s
b100000 r
1Y
0X
1-
#85000
b1000000000010000000000000000 #
b1000000000010000000000000000 K
b1000000000010000000000000000 5
b1000000000010000000000000000 b
b1000000000010000000000000000 `
b1000000000010000000000000000 n
b1000000000010000000000000000 7
b1000000000010000000000000000 Z
b1000000000010000000000000000 e
1F
b1000000000010000000000000000 $
b1000000000010000000000000000 /
b1000000000010000000000000000 D
b1000000000010000000000000000 M
0Y
b10011 9
b10011 S
b1010 8
b1010 R
b1010 ]
b1010 h
b1000000000010000000000000000 l
b1111 6
b1111 Q
b1111 [
b1111 f
b0 G
b0 N
b0 U
b1111000010100010011 W
b0 C
b0 T
b1111000010100010011 V
1X
b1111000010100010011 .
b1111000010100010011 O
b1111000010100010011 (
b0 %
0-
#90000
b1000000000010000000000000000000000000000000000000000000000000000000000000000000000000000000000000000000000000000000000000000000000000000000000000000000000000000100000000001000000000000000000000000000000000000000000000000000010000000001100000000000000000000000000000000000000000000000000000000000000000000000000000000000000000000000000000000000000000000000000000000000000000000000000000000000000000000000000000000000010000000001011111111111100000000000000000001000000000000100000000000000000000000000000000000 k
b1000000000010000000000000000000000000000000000000000000000000000000000000000000000000000000000000000000000000000000000000000000000000000000000000000000000000000100000000001000000000000000000000000000000000000000000000000000010000000001100000000000000000000000000000000000000000000000000000000000000000000000000000000000000000000000000000000000000000000000000000000000000000000000000000000000000000000000000000000000010000000001011111111111100000000000000000001000000000000100000000000000000000000000000000000 o
b10000000000101100 '
b10000000000101100 H
b1000000000010000000000000000000000000000000000000000000000000000000000000000000000000000000000000000000000000000000000000000000000000000000000000000000000000000100000000001000000000000000000000000000000000000000000000000000010000000001100000000000000000000000000000000000000000000000000000000000000000000000000000000000000000000000000000000000000000000000000000000000000000000000000000000000000000000000000000000000010000000001011111111111100000000000000000001000000000000100000000000000000000000000000000000 p
b101011111 s
b100000 r
1Y
0X
1-
#95000
b10000000010000000 I
b10000000000110000 7
b10000000000110000 Z
b10000000000110000 e
1@
0^
b0 `
b0 n
1?
0F
b0 #
b0 K
b0 5
b0 b
bx $
bx /
bx D
bx M
b0 E
b0 L
0Y
b1101111 9
b1101111 S
b1 8
b1 R
b1 ]
b1 h
b1000000000010000000000000000000000000000000000000000000000000000000000000000000000000000000000000000000000000000000000000000000000000000000000000000000000000000100000000001000000000000000000000000000000000000000000000000000010000000001100000000000000000000000000000000000000000000000000000000000000000000000000000000000000000000000000000000000000000000000000000000000000000000000000000000000000000000000000000000000010000000001011111111111100000000000000000001000000000000100000000000000000000000000000000000 l
b0 6
b0 Q
b0 [
b0 f
b0 k
b10100 4
b10100 P
b10100 \
b10100 g
bx G
bx N
bx U
b101010000000000000011101111 W
b1010100 C
b1010100 T
b101010000000000000011101111 V
1X
b101010000000000000011101111 .
b101010000000000000011101111 O
b101010000000000000011101111 (
b0 %
0-
#100000
b10000000000110000 j
b10000000010000100 7
b10000000010000100 Z
b10000000010000100 e
b1000000000010000000000000000000000000000000000000000000000000000000000000000000000000000000000000000000000000000000000000000000000000000000000000000000000000000100000000001000000000000000000000000000000000000000000000000000010000000001100000000000000000000000000000000000000000000000000000000000000000000000000000000000000000000000000000000000000000000000000000000000000000000000000000000000000000000000000000000000010000000001011111111111100000000000000000001000000000011000000000000000000000000000000000000 l
b1000000000010000000000000000000000000000000000000000000000000000000000000000000000000000000000000000000000000000000000000000000000000000000000000000000000000000100000000001000000000000000000000000000000000000000000000000000010000000001100000000000000000000000000000000000000000000000000000000000000000000000000000000000000000000000000000000000000000000000000000000000000000000000000000000000000000000000000000000000010000000001011111111111100000000000000000001000000000011000000000000000000000000000000000000 o
b10000000010000000 '
b10000000010000000 H
b1000000000010000000000000000000000000000000000000000000000000000000000000000000000000000000000000000000000000000000000000000000000000000000000000000000000000000100000000001000000000000000000000000000000000000000000000000000010000000001100000000000000000000000000000000000000000000000000000000000000000000000000000000000000000000000000000000000000000000000000000000000000000000000000000000000000000000000000000000000010000000001011111111111100000000000000000001000000000011000000000000000000000000000000000000 p
b111111 s
b100000 r
1Y
0X
1-
#105000
b1000000000101111111111110000 #
b1000000000101111111111110000 K
b1000000000101111111111110000 5
b1000000000101111111111110000 b
b1000000000101111111111000000 7
b1000000000101111111111000000 Z
b1000000000101111111111000000 e
0@
b1000000000101111111111110000 `
b1000000000101111111111110000 n
b11111111111111111111111111010000 E
b11111111111111111111111111010000 L
1F
b1000000000101111111111000000 $
b1000000000101111111111000000 /
b1000000000101111111111000000 D
b1000000000101111111111000000 M
0Y
b10011 9
b10011 S
b10 8
b10 R
b10 ]
b10 h
b100000000001000000000000000000000000000000000000000000000000000000000000000000000000000000000000000000000000000000000000000000000000000000000000000000000000000010000000000100000000000000000000000000000000000000000000000000001000000000110000000000000000000000000000000000000000000000000000000000000000000000000000000000000000000000000000000000000000000000000000000000000000000000000000000000000000000000000000000000001000000000101111111111110000 l
b10 6
b10 Q
b10 [
b10 f
b10000 4
b10000 P
b10000 \
b10000 g
b0 G
b0 N
b0 U
b11111101000000010000000100010011 W
b11111111111111111111111111010000 C
b11111111111111111111111111010000 T
b11111101000000010000000100010011 V
1X
b11111101000000010000000100010011 .
b11111101000000010000000100010011 O
b11111101000000010000000100010011 (
b0 %
0-
#110000
b1000000000101111111110010000 7
b1000000000101111111110010000 Z
b1000000000101111111110010000 e
b1000000000101111111110010000 $
b1000000000101111111110010000 /
b1000000000101111111110010000 D
b1000000000101111111110010000 M
b1000000000101111111111000000 #
b1000000000101111111111000000 K
b1000000000101111111111000000 5
b1000000000101111111111000000 b
b1000000000101111111111000000 `
b1000000000101111111111000000 n
b1000000000101111111111000000 i
b100000000001000000000000000000000000000000000000000000000000000000000000000000000000000000000000000000000000000000000000000000000000000000000000000000000000000010000000000100000000000000000000000000000000000000000000000000001000000000110000000000000000000000000000000000000000000000000000000000000000000000000000000000000000000000000000000000000000000000000000000000000000000000000000000000000000000000000000000000001000000000101111111111000000 l
b1000000000010000000000000000000000000000000000000000000000000000000000000000000000000000000000000000000000000000000000000000000000000000000000000000000000000000100000000001000000000000000000000000000000000000000000000000000010000000001100000000000000000000000000000000000000000000000000000000000000000000000000000000000000000000000000000000000000000000000000000000000000000000000000000000000000000000000000000000000010000000001011111111110000000000000000000001000000000011000000000000000000000000000000000000 o
b10000000010000100 '
b10000000010000100 H
b1000000000010000000000000000000000000000000000000000000000000000000000000000000000000000000000000000000000000000000000000000000000000000000000000000000000000000100000000001000000000000000000000000000000000000000000000000000010000000001100000000000000000000000000000000000000000000000000000000000000000000000000000000000000000000000000000000000000000000000000000000000000000000000000000000000000000000000000000000000010000000001011111111110000000000000000000001000000000011000000000000000000000000000000000000 p
b1011111 s
b100000 r
1Y
0X
1-
#115000
b0x 7
b0x Z
b0x e
b10000000000110000 0
b10000000000110000 1
b10000000000110000 3
b10000000000110000 a
1^
b10000000000110000 _
b10000000000110000 m
b0 >
0?
b1000000000101111111111101100 $
b1000000000101111111111101100 /
b1000000000101111111111101100 D
b1000000000101111111111101100 M
1)
1F
b101100 E
b101100 L
0Y
b100011 9
b10 :
1,
1A
b100011 S
b1100 8
b1100 R
b1100 ]
b1100 h
b10000000000100000000000000000000000000000000000000000000000000000000000000000000000000000000000000000000000000000000000000000000000000000000000000000000000000001000000000010000000000000000000000000000000000000000000000000000100000000011000000000000000000000000000000000000000000000000000000000000000000000000000000000000000000000000000000000000000000000000000000000000000000000000000000000000000000000000000000000000100000000010111111111100000000000000000000010000000000110000 k
b1 4
b1 P
b1 \
b1 g
b10000100010010011000100011 W
b101100 C
b101100 T
b10000100010010011000100011 V
1X
b10000100010010011000100011 .
b10000100010010011000100011 O
b10000100010010011000100011 (
b10000000000110000 %
0-
#120000
b10000000010001000 '
b10000000010001000 H
1Y
0X
1-
#125000
b1000000000110000000000000000 0
b1000000000110000000000000000 1
b1000000000110000000000000000 3
b1000000000110000000000000000 a
b1000000000110000000000000000 _
b1000000000110000000000000000 m
b1000000000101111111111101000 $
b1000000000101111111111101000 /
b1000000000101111111111101000 D
b1000000000101111111111101000 M
b101000 E
b101000 L
0Y
b1000 8
b1000 R
b1000 ]
b1000 h
b100000000001000000000000000000000000000000000000000000000000000000000000000000000000000000000000000000000000000000000000000000000000000000000000000000000000000010000000000100000000000000000000000000000000000000000000000000001000000000110000000000000000 k
b1000 4
b1000 P
b1000 \
b1000 g
b10100000010010010000100011 W
b101000 C
b101000 T
b10100000010010010000100011 V
1X
b10100000010010010000100011 .
b10100000010010010000100011 O
b10100000010010010000100011 (
b1000000000110000000000000000 %
0-
#130000
b10000000010001100 '
b10000000010001100 H
1Y
0X
1-
#135000
b1000000000101111111111110000 7
b1000000000101111111111110000 Z
b1000000000101111111111110000 e
b0 0
b0 1
b0 3
b0 a
0^
b0 _
b0 m
b10 >
1?
b1000000000101111111111110000 $
b1000000000101111111111110000 /
b1000000000101111111111110000 D
b1000000000101111111111110000 M
0)
b110000 E
b110000 L
0Y
b10011 9
b0 :
0,
0A
b10011 S
b0 k
b10000 4
b10000 P
b10000 \
b10000 g
b11000000010000010000010011 W
b110000 C
b110000 T
b11000000010000010000010011 V
1X
b11000000010000010000010011 .
b11000000010000010000010011 O
b11000000010000010000010011 (
b0 %
0-
#140000
b100000000001000000000000000000000000000000000000000000000000000000000000000000000000000000000000000000000000000000000000000000000000000000000000000000000000000010000000000100000000000000000000000000000000000000000000000000001000000000101111111111110000000000000000000000000000000000000000000000000000000000000000000000000000000000000000000000000000000000000000000000000000000000000000000000000000000000000000000000001000000000101111111111000000 l
b1000000000010000000000000000000000000000000000000000000000000000000000000000000000000000000000000000000000000000000000000000000000000000000000000000000000000000100000000001000000000000000000000000000000000000000000000000000010000000001011111111111100000000000000000000000000000000000000000000000000000000000000000000000000000000000000000000000000000000000000000000000000000000000000000000000000000000000000000000000010000000001011111111110000000000000000000001000000000011000000000000000000000000000000000000 o
b10000000010010000 '
b10000000010010000 H
b1000000000010000000000000000000000000000000000000000000000000000000000000000000000000000000000000000000000000000000000000000000000000000000000000000000000000000100000000001000000000000000000000000000000000000000000000000000010000000001011111111111100000000000000000000000000000000000000000000000000000000000000000000000000000000000000000000000000000000000000000000000000000000000000000000000000000000000000000000000010000000001011111111110000000000000000000001000000000011000000000000000000000000000000000000 p
b100011111 s
b100000 r
1Y
0X
1-
#145000
b0x 7
b0x Z
b0x e
b1000000000101111111111110000 #
b1000000000101111111111110000 K
b1000000000101111111111110000 5
b1000000000101111111111110000 b
b1000000000010000000000000000 0
b1000000000010000000000000000 1
b1000000000010000000000000000 3
b1000000000010000000000000000 a
1^
b1000000000101111111111110000 `
b1000000000101111111111110000 n
b1000000000010000000000000000 _
b1000000000010000000000000000 m
b0 >
0?
b1000000000101111111111001100 $
b1000000000101111111111001100 /
b1000000000101111111111001100 D
b1000000000101111111111001100 M
1)
1F
b11111111111111111111111111011100 E
b11111111111111111111111111011100 L
0Y
b100011 9
b10 :
1,
1A
b100011 S
b11100 8
b11100 R
b11100 ]
b11100 h
b100000000001000000000000000000000000000000000000000000000000000000000000000000000000000000000000000000000000000000000000000000000000000000000000000000000000000010000000000100000000000000000000000000000000000000000000000000001000000000101111111111110000 l
b1000 6
b1000 Q
b1000 [
b1000 f
b10000000000100000000000000000000000000000000000000000000000000000000000000000000000000000000000000000000000000000000000000000000000000000000000000000000000000001000000000010000000000000000 k
b1010 4
b1010 P
b1010 \
b1010 g
b11111100101001000010111000100011 W
b11111111111111111111111111011100 C
b11111111111111111111111111011100 T
b11111100101001000010111000100011 V
1X
b11111100101001000010111000100011 .
b11111100101001000010111000100011 O
b11111100101001000010111000100011 (
b1000000000010000000000000000 %
0-
#150000
b10000000010010100 '
b10000000010010100 H
1Y
0X
1-
#155000
b0 _
b0 m
b1000000000101111111111011100 $
b1000000000101111111111011100 /
b1000000000101111111111011100 D
b1000000000101111111111011100 M
b0 0
b0 1
b0 3
b0 a
b11111111111111111111111111101100 E
b11111111111111111111111111101100 L
0Y
b1100 8
b1100 R
b1100 ]
b1100 h
b1000000000010000000000000000000000000000000000000000000000000000000000000000000000000000000000000000000000000000000000000000000000000000000000000000000000000000100000000001000000000000000000000000000000000000000000000000000010000000001011111111111100000000000000000000000000000000000000000000000000000000000000000000000000000000000000000000000000000000000000000000000000000000000000000000000000000000000000000000000010000000001011111111110000000000000000000001000000000011000000000000000000000000000000000000 k
b0 4
b0 P
b0 \
b0 g
b11111110000001000010011000100011 W
b11111111111111111111111111101100 C
b11111111111111111111111111101100 T
b11111110000001000010011000100011 V
1X
b11111110000001000010011000100011 .
b11111110000001000010011000100011 O
b11111110000001000010011000100011 (
b0 %
0-
#160000
b10000000010011000 '
b10000000010011000 H
1Y
0X
1-
#165000
b10000000011000000 I
0^
1?
b1000000000101111111111110000 0
b1000000000101111111111110000 1
b1000000000101111111111110000 3
b1000000000101111111111110000 a
b10000000010011100 7
b10000000010011100 Z
b10000000010011100 e
1@
b0 `
b0 n
b1000000000101111111111110000 _
b1000000000101111111111110000 m
b10 >
0F
0)
b0 #
b0 K
b0 5
b0 b
bx $
bx /
bx D
bx M
b1000000000101111111111110000 E
b1000000000101111111111110000 L
0Y
b1101111 9
b0 :
0,
0A
b1101111 S
b0 8
b0 R
b0 ]
b0 h
b1000000000010000000000000000000000000000000000000000000000000000000000000000000000000000000000000000000000000000000000000000000000000000000000000000000000000000100000000001000000000000000000000000000000000000000000000000000010000000001011111111111100000000000000000000000000000000000000000000000000000000000000000000000000000000000000000000000000000000000000000000000000000000000000000000000000000000000000000000000010000000001011111111110000000000000000000001000000000011000000000000000000000000000000000000 l
b0 6
b0 Q
b0 [
b0 f
b100000000001000000000000000000000000000000000000000000000000000000000000000000000000000000000000000000000000000000000000000000000000000000000000000000000000000010000000000100000000000000000000000000000000000000000000000000001000000000101111111111110000 k
b1000 4
b1000 P
b1000 \
b1000 g
bx G
bx N
bx U
b10100000000000000001101111 W
b101000 C
b101000 T
b10100000000000000001101111 V
1X
b10100000000000000001101111 .
b10100000000000000001101111 O
b10100000000000000001101111 (
b1000000000101111111111110000 %
0-
#170000
b10000000010011100 `
b10000000010011100 n
b10000000011000100 7
b10000000011000100 Z
b10000000011000100 e
b1000000000010000000000000000000000000000000000000000000000000000000000000000000000000000000000000000000000000000000000000000000000000000000000000000000000000000100000000001000000000000000000000000000000000000000000000000000010000000001011111111111100000000000000000000000000000000000000000000000000000000000000000000000000000000000000000000000000000000000000000000000000000000000000000000000000000000000000000000000010000000001011111111110000000000000000000001000000000011000000000000000000010000000010011100 l
b1000000000010000000000000000000000000000000000000000000000000000000000000000000000000000000000000000000000000000000000000000000000000000000000000000000000000000100000000001000000000000000000000000000000000000000000000000000010000000001011111111111100000000000000000000000000000000000000000000000000000000000000000000000000000000000000000000000000000000000000000000000000000000000000000000000000000000000000000000000010000000001011111111110000000000000000000001000000000011000000000000000000010000000010011100 o
b10000000011000000 '
b10000000011000000 H
b1000000000010000000000000000000000000000000000000000000000000000000000000000000000000000000000000000000000000000000000000000000000000000000000000000000000000000100000000001000000000000000000000000000000000000000000000000000010000000001011111111111100000000000000000000000000000000000000000000000000000000000000000000000000000000000000000000000000000000000000000000000000000000000000000000000000000000000000000000000010000000001011111111110000000000000000000001000000000011000000000000000000010000000010011100 p
b11111 s
b100000 r
1Y
0X
1-
#175000
b0 0
b0 1
b0 3
b0 a
0@
b11111111111111111111111111101100 E
b11111111111111111111111111101100 L
b1000000000101111111111110000 `
b1000000000101111111111110000 n
b0 _
b0 m
b0 >
1F
b0 7
b0 Z
b0 e
1)
b1000000000101111111111110000 #
b1000000000101111111111110000 K
b1000000000101111111111110000 5
b1000000000101111111111110000 b
b1000000000101111111111011100 $
b1000000000101111111111011100 /
b1000000000101111111111011100 D
b1000000000101111111111011100 M
0Y
b11 9
b10 :
1B
b11 S
b1111 8
b1111 R
b1111 ]
b1111 h
b100000000001000000000000000000000000000000000000000000000000000000000000000000000000000000000000000000000000000000000000000000000000000000000000000000000000000010000000000100000000000000000000000000000000000000000000000000001000000000101111111111110000 l
b1000 6
b1000 Q
b1000 [
b1000 f
b1000000000010000000000000000000000000000000000000000000000000000000000000000000000000000000000000000000000000000000000000000 k
b1100 4
b1100 P
b1100 \
b1100 g
b0 G
b0 N
b0 U
b11111110110001000010011110000011 W
b11111111111111111111111111101100 C
b11111111111111111111111111101100 T
b11111110110001000010011110000011 V
1X
b11111110110001000010011110000011 .
b11111110110001000010011110000011 O
b11111110110001000010011110000011 (
b0 %
0-
