output/top_test.vcd
$date
	Tue May  2 12:52:24 2023
$end
$version
	Icarus Verilog
$end
$timescale
	1ps
$end
$scope module top_test $end
$scope module u_top_1 $end
$var wire 1 ! ACKD_n $end
$var wire 1 " ACKI_n $end
$var wire 32 # Alu_A [31:0] $end
$var wire 32 $ DAD [31:0] $end
$var wire 32 % DDT [31:0] $end
$var wire 1 & IACK_n $end
$var wire 32 ' IAD [31:0] $end
$var wire 32 ( IDT [31:0] $end
$var wire 1 ) MREQ $end
$var wire 3 * OINT_n [2:0] $end
$var wire 32 + Reg_temp [31:0] $end
$var wire 1 , WRITE $end
$var wire 1 - clk $end
$var wire 32 . inst [31:0] $end
$var wire 32 / memAddr [31:0] $end
$var wire 32 0 memRdData [31:0] $end
$var wire 32 1 memWrData [31:0] $end
$var wire 1 2 rst $end
$var wire 32 3 rs2_data [31:0] $end
$var wire 5 4 rs2 [4:0] $end
$var wire 32 5 rs1_data [31:0] $end
$var wire 5 6 rs1 [4:0] $end
$var wire 32 7 regWrData [31:0] $end
$var wire 5 8 rd [4:0] $end
$var wire 8 9 opcode [7:0] $end
$var wire 3 : func [2:0] $end
$var wire 1 ; ZERO $end
$var wire 1 < SLTU $end
$var wire 1 = SLT $end
$var wire 2 > SIZE [1:0] $end
$var wire 1 ? RegWrite $end
$var wire 1 @ PcSrc $end
$var wire 1 A MemWrite $end
$var wire 2 B MemToReg [1:0] $end
$var wire 1 C MemRead $end
$var wire 32 D Imm [31:0] $end
$var wire 32 E Alu_Out [31:0] $end
$var wire 32 F Alu_B [31:0] $end
$var wire 1 G AluSrc $end
$var wire 3 H AluCtrl [2:0] $end
$var reg 32 I PC [31:0] $end
$var reg 32 J PC_IN [31:0] $end
$var reg 1 K branch_check $end
$var reg 1 L clk_reg $end
$scope module u_alu $end
$var wire 32 M A [31:0] $end
$var wire 32 N B [31:0] $end
$var wire 1 ; zero $end
$var wire 1 < sltu $end
$var wire 1 = slt $end
$var wire 32 O Out [31:0] $end
$var wire 3 P Ctrl [2:0] $end
$upscope $end
$scope module u_decoder $end
$var wire 1 ? RegWrite $end
$var wire 32 Q inst [31:0] $end
$var wire 5 R rs2 [4:0] $end
$var wire 5 S rs1 [4:0] $end
$var wire 5 T rd [4:0] $end
$var wire 7 U opCode [6:0] $end
$var wire 1 A MemWrite $end
$var wire 2 V MemToReg [1:0] $end
$var wire 1 C MemRead $end
$var wire 32 W Imm [31:0] $end
$var wire 1 G AluSrc $end
$var wire 3 X AluCtrl [2:0] $end
$scope function Immediate $end
$var reg 32 Y inst [31:0] $end
$upscope $end
$scope function alu_control $end
$var reg 32 Z inst [31:0] $end
$upscope $end
$upscope $end
$scope module u_regfile $end
$var wire 1 - clk $end
$var wire 1 [ clk_inv $end
$var wire 32 \ data_in [31:0] $end
$var wire 5 ] rd1_addr [4:0] $end
$var wire 5 ^ rd2_addr [4:0] $end
$var wire 1 2 reset $end
$var wire 5 _ wr_addr [4:0] $end
$var wire 1 ` wr_n $end
$var wire 32 a ram_data2_out [31:0] $end
$var wire 32 b ram_data1_out [31:0] $end
$var wire 32 c data2_out [31:0] $end
$var wire 32 d data1_out [31:0] $end
$scope module u_DW_ram_2r_w_s_dff $end
$var wire 1 e a_rst_n $end
$var wire 1 [ clk $end
$var wire 1 f cs_n $end
$var wire 32 g data_in [31:0] $end
$var wire 5 h rd1_addr [4:0] $end
$var wire 5 i rd2_addr [4:0] $end
$var wire 1 2 rst_n $end
$var wire 5 j wr_addr [4:0] $end
$var wire 1 ` wr_n $end
$var wire 32 k sp [31:0] $end
$var wire 32 l ra [31:0] $end
$var wire 1024 m mem_mux2 [1023:0] $end
$var wire 1024 n mem_mux1 [1023:0] $end
$var wire 32 o data_rd2_out [31:0] $end
$var wire 32 p data_rd1_out [31:0] $end
$var reg 1024 q mem [1023:0] $end
$var reg 1024 r next_mem [1023:0] $end
$scope begin clk_monitor $end
$upscope $end
$scope begin parameter_check $end
$var integer 32 s param_err_flg [31:0] $end
$upscope $end
$scope begin registers $end
$var integer 32 t i [31:0] $end
$var integer 32 u j [31:0] $end
$upscope $end
$upscope $end
$upscope $end
$upscope $end
$upscope $end
$enddefinitions $end
#0
$dumpvars
bx u
bx t
b0 s
bx r
bx q
bx p
bx o
bx n
bx m
bx l
bx k
bx j
bx i
bx h
bx g
0f
1e
bx d
bx c
bx b
bx a
x`
bx _
bx ^
bx ]
bx \
0[
bx Z
bx Y
bx X
bx W
bx V
bx U
bx T
bx S
bx R
bx Q
bx P
bx O
bx N
bx M
xL
xK
bx J
bx I
bx H
0G
bx F
bx E
bx D
xC
bx B
xA
0@
x?
bx >
x=
x<
x;
bx :
b0xxxxxxx 9
bx 8
bx 7
bx 6
bx 5
bx 4
bx 3
12
bx 1
bx 0
bx /
bx .
1-
x,
bz +
b111 *
x)
bx (
bx '
1&
bx %
bx $
bx #
1"
1!
$end
#1000
b0 l
b0 k
b0 q
b10000000000000000 '
b10000000000000000 I
0e
02
#5000
0`
b1000000000110000000000000000 7
b1000000000110000000000000000 \
b1000000000110000000000000000 g
1?
b11 B
b11 V
b1x >
b0 #
b0 M
b0 5
b0 d
b0 b
b0 p
b0 F
b0 N
b0 a
b0 o
0)
0G
b0 0
b0 %
b0 1
b0 3
b0 c
b1011111 u
b100000 t
b0xxxxxxxxxxxxxxxxxxxxxxxxxxxxxxxx0000000000000000000000000000000000000000000000000000000000000000 r
b110111 9
b0 :
0C
0,
0A
b110111 U
b10 8
b10 T
b10 _
b10 j
b0 n
b110 6
b110 S
b110 ]
b110 h
b0 m
b0 4
b0 R
b0 ^
b0 i
b1000000000110000000100110111 Z
b1000000000110000000000000000 D
b1000000000110000000000000000 W
b1000000000110000000100110111 Y
1[
0"
b1000000000110000000100110111 .
b1000000000110000000100110111 Q
b1000000000110000000100110111 (
0-
#7000
1L
#10000
0[
0L
1-
#11000
1e
12
#15000
b1000000000110000000000000000 k
b10000000001100000000000000000000000000000000000000000000000000000000000000000000000000000000 m
b10000000001100000000000000000000000000000000000000000000000000000000000000000000000000000000 q
b1011111 u
b100000 t
b10000000001100000000000000000000000000000000000000000000000000000000000000000000000000000000 r
1[
0-
b0 %
#17000
1L
#20000
b10000000000000100 '
b10000000000000100 I
0[
0L
1-
#25000
b1000000000110000000000000000 l
b10000000000010100 J
b10000000001100000000000000000000100000000011000000000000000000000000000000000000000000000000 q
b10 B
b10 V
b10000000000001000 7
b10000000000001000 \
b10000000000001000 g
1@
b10000000001100000000000000000000100000000011000000000000000000000000000000000000000000000000 r
b111111 u
b100000 t
1[
b1101111 9
b1101111 U
b1 8
b1 T
b1 _
b1 j
b10000000001100000000000000000000100000000011000000000000000000000000000000000000000000000000 n
b0 6
b0 S
b0 ]
b0 h
b0 m
b10000 4
b10000 R
b10000 ^
b10000 i
b1000000000000000011101111 Z
b10000 D
b10000 W
b1000000000000000011101111 Y
0-
b1000000000000000011101111 .
b1000000000000000011101111 Q
b1000000000000000011101111 (
b0 %
#27000
1L
#30000
b10000000000011000 7
b10000000000011000 \
b10000000000011000 g
b10000000000010100 '
b10000000000010100 I
0[
0L
1-
#35000
b10000000000011000 k
b100000000000110000000100000000011000000000000000000000000000000000000000000000000 q
b10000000000001000 7
b10000000000001000 \
b10000000000001000 g
b0 B
b0 V
b10000000000011000 #
b10000000000011000 M
b10000000000011000 5
b10000000000011000 d
0@
b11111111111111111111111111110000 F
b11111111111111111111111111110000 N
b10000000000011000 b
b10000000000011000 p
1G
b100000000000110000000100000000011000000000000000000000000000000000000000000000000 r
b1011111 u
b100000 t
b10000000000001000 $
b10000000000001000 /
b10000000000001000 E
b10000000000001000 O
1[
b10011 9
b10011 U
b10 8
b10 T
b10 _
b10 j
b10000000000011000 n
b10 6
b10 S
b10 ]
b10 h
b0 H
b0 P
b0 X
b11111111000000010000000100010011 Z
b11111111111111111111111111110000 D
b11111111111111111111111111110000 W
b11111111000000010000000100010011 Y
0-
b11111111000000010000000100010011 .
b11111111000000010000000100010011 Q
b11111111000000010000000100010011 (
b0 %
#37000
1L
#40000
b10000000000011000 '
b10000000000011000 I
0[
0L
1-
#45000
b1000000000000100000000000000000000000000000000000000000000000000000000000000000000000000000000000000000000000000000000000000000000000000000000000000000000000000000000000000000000000000000000000000000000000000000000000000000000000000000000000000000000000000000000000000000000000000000000000000000000000000000000000000000010000000000011000 n
b10000000000001000000000000000000000000000000000000000000000000000000000000000000000000000000000000000000000000000000000000000000000000000000000000000000000000000000000000000000000000000000000000000000000000000000000000000000000000000000000000000000000000000000000000000000000000000000000000000000000000000000000000000000100000000000110000000100000000011000000000000000000000000000000000000000000000000 q
b10000000000100100 7
b10000000000100100 \
b10000000000100100 g
bx >
b1000000000110000000000000000 0
b1000000000110000000000000000 1
b1000000000110000000000000000 3
b1000000000110000000000000000 c
1`
b1000000000110000000000000000 a
b1000000000110000000000000000 o
0?
1G
b10000000000100100 $
b10000000000100100 /
b10000000000100100 E
b10000000000100100 O
b10000000000001000000000000000000000000000000000000000000000000000000000000000000000000000000000000000000000000000000000000000000000000000000000000000000000000000000000000000000000000000000000000000000000000000000000000000000000000000000000000000000000000000000000000000000000000000000000000000000000000000000000000000000100000000000110000000100000000011000000000000000000000000000000000000000000000000 r
b110011111 u
b100000 t
1)
b1100 F
b1100 N
1[
b100011 9
b10 :
1,
1A
b100011 U
b1100 8
b1100 T
b1100 _
b1100 j
b100000000000010000000000000000000000000000000000000000000000000000000000000000000000000000000000000000000000000000000000000000000000000000000000000000000000000000000000000000000000000000000000000000000000000000000000000000000000000000000000000000000000000000000000000000000000000000000000000000000000000000000000000000001000000000001100000001000000000110000000000000000 m
b1 4
b1 R
b1 ^
b1 i
b100010010011000100011 Z
b1100 D
b1100 W
b100010010011000100011 Y
0-
b100010010011000100011 .
b100010010011000100011 Q
b100010010011000100011 (
b1000000000110000000000000000 %
#47000
1L
#50000
b10000000000011100 '
b10000000000011100 I
0[
0L
1-
#55000
b10000000000100000 7
b10000000000100000 \
b10000000000100000 g
b0 0
b0 1
b0 3
b0 c
b0 a
b0 o
b10000000000100000 $
b10000000000100000 /
b10000000000100000 E
b10000000000100000 O
b1000 F
b1000 N
1[
b1000 8
b1000 T
b1000 _
b1000 j
b1000000000000100000000000000000000000000000000000000000000000000000000000000000000000000000000000000000000000000000000000000000000000000000000000 m
b1000 4
b1000 R
b1000 ^
b1000 i
b100000010010010000100011 Z
b1000 D
b1000 W
b100000010010010000100011 Y
0-
0!
b100000010010010000100011 .
b100000010010010000100011 Q
b100000010010010000100011 (
b0 %
#57000
1L
#60000
b10000000000100000 '
b10000000000100000 I
0[
0L
1-
#65000
b10000000000101000 7
b10000000000101000 \
b10000000000101000 g
b1x >
0`
1?
b10000000000101000 $
b10000000000101000 /
b10000000000101000 E
b10000000000101000 O
0)
b10000 F
b10000 N
1[
b10011 9
b0 :
0,
0A
b10011 U
b0 m
b10000 4
b10000 R
b10000 ^
b10000 i
b1000000010000010000010011 Z
b10000 D
b10000 W
b1000000010000010000010011 Y
0-
b1000000010000010000010011 .
b1000000010000010000010011 Q
b1000000010000010000010011 (
b0 %
#67000
1L
#70000
b10000000000100100 '
b10000000000100100 I
0[
0L
1-
#75000
b1000000000010100000000000000000000000000000000000000000000000000000000000000000000000000000000001000000000000100000000000000000000000000000000000000000000000000000000000000000000000000000000000000000000000000000000000000000000000000000000000000000000000000000000000000000000000000000000000000000000000000000000000000000000000000000000000000000000000000000000000000000000000000000000000000000000000000000000000000000010000000000011000 n
b10000000000101000000000000000000000000000000000000000000000000000000000000000000000000000000000010000000000001000000000000000000000000000000000000000000000000000000000000000000000000000000000000000000000000000000000000000000000000000000000000000000000000000000000000000000000000000000000000000000000000000000000000000000000000000000000000000000000000000000000000000000000000000000000000000000000000000000000000000000100000000000110000000100000000011000000000000000000000000000000000000000000000000 q
b11 B
b11 V
b1000000000010000000000000000 7
b1000000000010000000000000000 \
b1000000000010000000000000000 g
0`
1?
0G
b10000000000101000000000000000000000000000000000000000000000000000000000000000000000000000000000010000000000001000000000000000000000000000000000000000000000000000000000000000000000000000000000000000000000000000000000000000000000000000000000000000000000000000000000000000000000000000000000000000000000000000000000000000000000000000000000000000000000000000000000000000000000000000000000000000000000000000000000000000000100000000000110000000100000000011000000000000000000000000000000000000000000000000 r
b111111111 u
b100000 t
bx $
bx /
bx E
bx O
b0 F
b0 N
1[
b110111 9
b110111 U
b1111 8
b1111 T
b1111 _
b1111 j
b10000000000101000000000000000000000000000000000000000000000000000000000000000000000000000000000010000000000001000000000000000000000000000000000000000000000000000000000000000000000000000000000000000000000000000000000000000000000000000000000000000000000000000000000000000000000000000000000000000000000000000000000000000000000000000000000000000000000000000000000000000000000000000000000000000000000000000000000000000000100000000000110000000100000000011000000000000000000000000000000000000000000000000 m
b0 4
b0 R
b0 ^
b0 i
bx H
bx P
bx X
b1000000000010000011110110111 Z
b1000000000010000000000000000 D
b1000000000010000000000000000 W
b1000000000010000011110110111 Y
0-
b1000000000010000011110110111 .
b1000000000010000011110110111 Q
b1000000000010000011110110111 (
b0 %
#77000
1L
#80000
b10000000000101000 '
b10000000000101000 I
0[
0L
1-
#85000
b10000000000101000000000000000000000000000000000000000000000000000000000000000000000000000000000010000000000001000000000000000000000000000000000000000100000000001000000000000000000000000000000000000000000000000000000000000000000000000000000000000000000000000000000000000000000000000000000000000000000000000000000000000000000000000000000000000000000000000000000000000000000000000000000000000000000000000000000000000000100000000000110000000100000000011000000000000000000000000000000000000000000000000 m
b10000000000101000000000000000000000000000000000000000000000000000000000000000000000000000000000010000000000001000000000000000000000000000000000000000100000000001000000000000000000000000000000000000000000000000000000000000000000000000000000000000000000000000000000000000000000000000000000000000000000000000000000000000000000000000000000000000000000000000000000000000000000000000000000000000000000000000000000000000000100000000000110000000100000000011000000000000000000000000000000000000000000000000 q
b0 B
b0 V
b10000000000101000 #
b10000000000101000 M
b10000000000101000 5
b10000000000101000 d
b10000000000101000 7
b10000000000101000 \
b10000000000101000 g
b10000000000101000 b
b10000000000101000 p
1G
b10000000000101000000000000000000000000000000000000000000000000000000000000000000000000000000000010000000000001000000000000000000000000000000000000000100000000001000000000000000000000000000000000000000000000000000000000000000000000000000000000000000000000000000000000000000000000000000000000000000000000000000000000000000000000000000000000000000000000000000000000000000000000000000000000000000000000000000000000000000100000000000110000000100000000011000000000000000000000000000000000000000000000000 r
b101011111 u
b100000 t
b10000000000101000 $
b10000000000101000 /
b10000000000101000 E
b10000000000101000 O
1[
b10011 9
b10011 U
b1010 8
b1010 T
b1010 _
b1010 j
b10000000000101000 n
b1111 6
b1111 S
b1111 ]
b1111 h
b0 H
b0 P
b0 X
b1111000010100010011 Z
b0 D
b0 W
b1111000010100010011 Y
0-
b1111000010100010011 .
b1111000010100010011 Q
b1111000010100010011 (
b0 %
#87000
1L
#90000
b10000000000101100 '
b10000000000101100 I
0[
0L
1-
#95000
b10000000000101000 l
b10000000010000000 J
b10000000000101000000000000000000000000000000000000000000000000000000000000000000000000000000000010000000000001000000000000000000000000000000000000000100000000001000000000000000000000000000000000000000000000000000000000000000000000000000000000000000000000000000000000000000000000000000000000000000000000000000000000000000000000000000000000000000000000000000000000000000000000000000000000000000000000000000000000000000100000000000110000000000000000001000000000010100000000000000000000000000000000000 q
b10 B
b10 V
b10000000000110000 7
b10000000000110000 \
b10000000000110000 g
1@
0`
b0 b
b0 p
1?
0G
b10000000000101000000000000000000000000000000000000000000000000000000000000000000000000000000000010000000000001000000000000000000000000000000000000000100000000001000000000000000000000000000000000000000000000000000000000000000000000000000000000000000000000000000000000000000000000000000000000000000000000000000000000000000000000000000000000000000000000000000000000000000000000000000000000000000000000000000000000000000100000000000110000000000000000001000000000010100000000000000000000000000000000000 r
b111111 u
b100000 t
b0 #
b0 M
b0 5
b0 d
bx $
bx /
bx E
bx O
b0 F
b0 N
1[
b1101111 9
b1101111 U
b1 8
b1 T
b1 _
b1 j
b10000000000101000000000000000000000000000000000000000000000000000000000000000000000000000000000010000000000001000000000000000000000000000000000000000100000000001000000000000000000000000000000000000000000000000000000000000000000000000000000000000000000000000000000000000000000000000000000000000000000000000000000000000000000000000000000000000000000000000000000000000000000000000000000000000000000000000000000000000000100000000000110000000000000000001000000000010100000000000000000000000000000000000 n
b0 6
b0 S
b0 ]
b0 h
b0 m
b10100 4
b10100 R
b10100 ^
b10100 i
bx H
bx P
bx X
b101010000000000000011101111 Z
b1010100 D
b1010100 W
b101010000000000000011101111 Y
0-
b101010000000000000011101111 .
b101010000000000000011101111 Q
b101010000000000000011101111 (
b0 %
#97000
1L
#100000
b10000000010000100 7
b10000000010000100 \
b10000000010000100 g
b10000000010000000 '
b10000000010000000 I
0[
0L
1-
#105000
b10000000010000100 k
b10000000000101000000000000000000000000000000000000000000000000000000000000000000000000000000000010000000000001000000000000000000000000000000000000000100000000001000000000000000000000000000000000000000000000000000000000000000000000000000000000000000000000000000000000000000000000000000000000000000000000000000000000000000000000000000000000000000000000000000000000000000000000000000000000000000000000000000000000000000100000000100001000000000000000001000000000010100000000000000000000000000000000000 q
b10000000001010100 7
b10000000001010100 \
b10000000001010100 g
b0 B
b0 V
b10000000010000100 #
b10000000010000100 M
b10000000010000100 5
b10000000010000100 d
0@
b11111111111111111111111111010000 F
b11111111111111111111111111010000 N
b10000000010000100 b
b10000000010000100 p
1G
b10000000000101000000000000000000000000000000000000000000000000000000000000000000000000000000000010000000000001000000000000000000000000000000000000000100000000001000000000000000000000000000000000000000000000000000000000000000000000000000000000000000000000000000000000000000000000000000000000000000000000000000000000000000000000000000000000000000000000000000000000000000000000000000000000000000000000000000000000000000100000000100001000000000000000001000000000010100000000000000000000000000000000000 r
b1011111 u
b100000 t
b10000000001010100 $
b10000000001010100 /
b10000000001010100 E
b10000000001010100 O
1[
b10011 9
b10011 U
b10 8
b10 T
b10 _
b10 j
b1000000000010100000000000000000000000000000000000000000000000000000000000000000000000000000000001000000000000100000000000000000000000000000000000000010000000000100000000000000000000000000000000000000000000000000000000000000000000000000000000000000000000000000000000000000000000000000000000000000000000000000000000000000000000000000000000000000000000000000000000000000000000000000000000000000000000000000000000000000010000000010000100 n
b10 6
b10 S
b10 ]
b10 h
b10000 4
b10000 R
b10000 ^
b10000 i
b0 H
b0 P
b0 X
b11111101000000010000000100010011 Z
b11111111111111111111111111010000 D
b11111111111111111111111111010000 W
b11111101000000010000000100010011 Y
0-
b11111101000000010000000100010011 .
b11111101000000010000000100010011 Q
b11111101000000010000000100010011 (
b0 %
#107000
1L
#110000
b10000000010000100 '
b10000000010000100 I
0[
0L
1-
#115000
b1000000000010100000000000000000000000000000000000000000000000000000000000000000000000000000000001000000000101010000000000000000000000000000000000000010000000000100000000000000000000000000000000000000000000000000000000000000000000000000000000000000000000000000000000000000000000000000000000000000000000000000000000000000000000000000000000000000000000000000000000000000000000000000000000000000000000000000000000000000010000000010000100 n
b10000000000101000000000000000000000000000000000000000000000000000000000000000000000000000000000010000000001010100000000000000000000000000000000000000100000000001000000000000000000000000000000000000000000000000000000000000000000000000000000000000000000000000000000000000000000000000000000000000000000000000000000000000000000000000000000000000000000000000000000000000000000000000000000000000000000000000000000000000000100000000100001000000000000000001000000000010100000000000000000000000000000000000 q
b10000000010110000 7
b10000000010110000 \
b10000000010110000 g
bx >
b10000000000101000 0
b10000000000101000 1
b10000000000101000 3
b10000000000101000 c
1`
b10000000000101000 a
b10000000000101000 o
0?
1G
b10000000010110000 $
b10000000010110000 /
b10000000010110000 E
b10000000010110000 O
b10000000000101000000000000000000000000000000000000000000000000000000000000000000000000000000000010000000001010100000000000000000000000000000000000000100000000001000000000000000000000000000000000000000000000000000000000000000000000000000000000000000000000000000000000000000000000000000000000000000000000000000000000000000000000000000000000000000000000000000000000000000000000000000000000000000000000000000000000000000100000000100001000000000000000001000000000010100000000000000000000000000000000000 r
b110011111 u
b100000 t
1)
b101100 F
b101100 N
1[
b100011 9
b10 :
1,
1A
b100011 U
b1100 8
b1100 T
b1100 _
b1100 j
b100000000001010000000000000000000000000000000000000000000000000000000000000000000000000000000000100000000010101000000000000000000000000000000000000001000000000010000000000000000000000000000000000000000000000000000000000000000000000000000000000000000000000000000000000000000000000000000000000000000000000000000000000000000000000000000000000000000000000000000000000000000000000000000000000000000000000000000000000000001000000001000010000000000000000010000000000101000 m
b1 4
b1 R
b1 ^
b1 i
b10000100010010011000100011 Z
b101100 D
b101100 W
b10000100010010011000100011 Y
0-
b10000100010010011000100011 .
b10000100010010011000100011 Q
b10000100010010011000100011 (
b10000000000101000 %
#117000
1L
#120000
b10000000010001000 '
b10000000010001000 I
0[
0L
1-
#125000
b10000000010101100 7
b10000000010101100 \
b10000000010101100 g
b0 0
b0 1
b0 3
b0 c
b0 a
b0 o
b10000000010101100 $
b10000000010101100 /
b10000000010101100 E
b10000000010101100 O
b101000 F
b101000 N
1[
b1000 8
b1000 T
b1000 _
b1000 j
b1000000000010100000000000000000000000000000000000000000000000000000000000000000000000000000000001000000000101010000000000000000000000000000000000000010000000000100000000000000000000000000000000000000000000000000000000000000000000000000000000 m
b1000 4
b1000 R
b1000 ^
b1000 i
b10100000010010010000100011 Z
b101000 D
b101000 W
b10100000010010010000100011 Y
0-
b10100000010010010000100011 .
b10100000010010010000100011 Q
b10100000010010010000100011 (
b0 %
#127000
1L
#130000
b10000000010001100 '
b10000000010001100 I
0[
0L
1-
#135000
b10000000010110100 7
b10000000010110100 \
b10000000010110100 g
b1x >
0`
1?
b10000000010110100 $
b10000000010110100 /
b10000000010110100 E
b10000000010110100 O
0)
b110000 F
b110000 N
1[
b10011 9
b0 :
0,
0A
b10011 U
b0 m
b10000 4
b10000 R
b10000 ^
b10000 i
b11000000010000010000010011 Z
b110000 D
b110000 W
b11000000010000010000010011 Y
0-
b11000000010000010000010011 .
b11000000010000010000010011 Q
b11000000010000010000010011 (
b0 %
#137000
1L
#140000
b10000000010010000 '
b10000000010010000 I
0[
0L
1-
#145000
b1000000001011010000000000000000000000000000000000000000000000000000000000000000000000000000000000000000000000000000000000000000000000000000000000000000000000000000000000000000000000000000000000000000000000000000000000000000000000000000000000000000000000000000000000000000000000000000000000000000000000000000000000000000000000000000000000000000000000000000000000000000000000000000000000000000000000000000000000000000010000000000101000000000000000000000000000000000000000000000000000000000000000000000000000000000010000000001010100000000000000000000000000000000000000100000000001000000000000000000000000000000000000000000000000000000000000000000000000000000000000000000000000000000000000000000000000000000000000000000000000000000000000000000000000000000000000000000000000000000000000000000000000000000000000000000000000000000000000000100000000100001000000000000000001000000000010100000000000000000000000000000000000 q
b11111111111111111111111111011100 7
b11111111111111111111111111011100 \
b11111111111111111111111111011100 g
bx >
b0 #
b0 M
b0 5
b0 d
b1000000000010000000000000000 0
b1000000000010000000000000000 1
b1000000000010000000000000000 3
b1000000000010000000000000000 c
1`
b0 b
b0 p
b1000000000010000000000000000 a
b1000000000010000000000000000 o
0?
1G
b11111111111111111111111111011100 $
b11111111111111111111111111011100 /
b11111111111111111111111111011100 E
b11111111111111111111111111011100 O
b1000000001011010000000000000000000000000000000000000000000000000000000000000000000000000000000000000000000000000000000000000000000000000000000000000000000000000000000000000000000000000000000000000000000000000000000000000000000000000000000000000000000000000000000000000000000000000000000000000000000000000000000000000000000000000000000000000000000000000000000000000000000000000000000000000000000000000000000000000000010000000000101000000000000000000000000000000000000000000000000000000000000000000000000000000000010000000001010100000000000000000000000000000000000000100000000001000000000000000000000000000000000000000000000000000000000000000000000000000000000000000000000000000000000000000000000000000000000000000000000000000000000000000000000000000000000000000000000000000000000000000000000000000000000000000000000000000000000000000100000000100001000000000000000001000000000010100000000000000000000000000000000000 r
b1110011111 u
b100000 t
1)
b11111111111111111111111111011100 F
b11111111111111111111111111011100 N
1[
b100011 9
b10 :
1,
1A
b100011 U
b11100 8
b11100 T
b11100 _
b11100 j
b100000000101101000000000000000000000000000000000000000000000000000000000000000000000000000000000000000000000000000000000000000000000000000000000000000000000000000000000000000000000000000000000000000000000000000000000000000000000000000000000000000000000000000000000000000000000000000000000000000000000000000000000000000000000000000000000000000000000000000000000000000000000000000000000000000000000000000000000000000001000000000010100000000000000000000000000000000000000000000000000000000000000000000000000000000001000000000101010000000000000000000000000000000000000010000000000100000000000000000000000000000000000000000000000000000000000000000000000000000000 n
b1000 6
b1000 S
b1000 ]
b1000 h
b10000000010110100000000000000000000000000000000000000000000000000000000000000000000000000000000000000000000000000000000000000000000000000000000000000000000000000000000000000000000000000000000000000000000000000000000000000000000000000000000000000000000000000000000000000000000000000000000000000000000000000000000000000000000000000000000000000000000000000000000000000000000000000000000000000000000000000000000000000000100000000001010000000000000000000000000000000000000000000000000000000000000000000000000000000000100000000010101000000000000000000000000000000000000001000000000010000000000000000 m
b1010 4
b1010 R
b1010 ^
b1010 i
b11111100101001000010111000100011 Z
b11111111111111111111111111011100 D
b11111111111111111111111111011100 W
b11111100101001000010111000100011 Y
0-
b11111100101001000010111000100011 .
b11111100101001000010111000100011 Q
b11111100101001000010111000100011 (
b1000000000010000000000000000 %
#147000
1L
#150000
b10000000010010100 '
b10000000010010100 I
0[
0L
1-
#155000
b11111111111111111111111111101100 7
b11111111111111111111111111101100 \
b11111111111111111111111111101100 g
b0 a
b0 o
b11111111111111111111111111101100 $
b11111111111111111111111111101100 /
b11111111111111111111111111101100 E
b11111111111111111111111111101100 O
b0 0
b0 1
b0 3
b0 c
b11111111111111111111111111101100 F
b11111111111111111111111111101100 N
1[
b1100 8
b1100 T
b1100 _
b1100 j
b1000000001011010000000000000000000000000000000000000000000000000000000000000000000000000000000000000000000000000000000000000000000000000000000000000000000000000000000000000000000000000000000000000000000000000000000000000000000000000000000000000000000000000000000000000000000000000000000000000000000000000000000000000000000000000000000000000000000000000000000000000000000000000000000000000000000000000000000000000000010000000000101000000000000000000000000000000000000000000000000000000000000000000000000000000000010000000001010100000000000000000000000000000000000000100000000001000000000000000000000000000000000000000000000000000000000000000000000000000000000000000000000000000000000000000000000000000000000000000000000000000000000000000000000000000000000000000000000000000000000000000000000000000000000000000000000000000000000000000100000000100001000000000000000001000000000010100000000000000000000000000000000000 m
b0 4
b0 R
b0 ^
b0 i
b11111110000001000010011000100011 Z
b11111111111111111111111111101100 D
b11111111111111111111111111101100 W
b11111110000001000010011000100011 Y
0-
b11111110000001000010011000100011 .
b11111110000001000010011000100011 Q
b11111110000001000010011000100011 (
b0 %
#157000
1L
#160000
b10000000010011000 '
b10000000010011000 I
0[
0L
1-
#165000
b10000000011000000 J
0`
1?
b1x >
b10 B
b10 V
b10000000010011100 7
b10000000010011100 \
b10000000010011100 g
1@
0G
0)
bx $
bx /
bx E
bx O
b0 F
b0 N
1[
b1101111 9
b0 :
0,
0A
b1101111 U
b0 8
b0 T
b0 _
b0 j
b1000000001011010000000000000000000000000000000000000000000000000000000000000000000000000000000000000000000000000000000000000000000000000000000000000000000000000000000000000000000000000000000000000000000000000000000000000000000000000000000000000000000000000000000000000000000000000000000000000000000000000000000000000000000000000000000000000000000000000000000000000000000000000000000000000000000000000000000000000000010000000000101000000000000000000000000000000000000000000000000000000000000000000000000000000000010000000001010100000000000000000000000000000000000000100000000001000000000000000000000000000000000000000000000000000000000000000000000000000000000000000000000000000000000000000000000000000000000000000000000000000000000000000000000000000000000000000000000000000000000000000000000000000000000000000000000000000000000000000100000000100001000000000000000001000000000010100000000000000000000000000000000000 n
b0 6
b0 S
b0 ]
b0 h
b100000000101101000000000000000000000000000000000000000000000000000000000000000000000000000000000000000000000000000000000000000000000000000000000000000000000000000000000000000000000000000000000000000000000000000000000000000000000000000000000000000000000000000000000000000000000000000000000000000000000000000000000000000000000000000000000000000000000000000000000000000000000000000000000000000000000000000000000000000001000000000010100000000000000000000000000000000000000000000000000000000000000000000000000000000001000000000101010000000000000000000000000000000000000010000000000100000000000000000000000000000000000000000000000000000000000000000000000000000000 m
b1000 4
b1000 R
b1000 ^
b1000 i
bx H
bx P
bx X
b10100000000000000001101111 Z
b101000 D
b101000 W
b10100000000000000001101111 Y
0-
b10100000000000000001101111 .
b10100000000000000001101111 Q
b10100000000000000001101111 (
b0 %
#167000
1L
#170000
b10000000011000100 7
b10000000011000100 \
b10000000011000100 g
b10000000011000000 '
b10000000011000000 I
0[
0L
1-
